"Timestamp","Name of Species","Initial Spawning Location","Venomous?","Weapons","Armor","Speed","Forager?","Temperature Tolerance","Name or Pseudonym of Human Player","How do I contact you if there is a problem with your entry?","Do you have Less Wrong account? If so, what is it? (Optional)","Social media link in case you win (Optional)"
"2021/09/24 12:20:56 AM MDT","Caribou","Tundra","Neither","1","2","1","Lichen","Cold (Allows survival in the Tundra)","","","",""
"2021/09/24 12:21:14 AM MDT","Mouse","Grassland","Neither","0","0","1","Seeds","","","","",""
"2021/09/24 12:21:43 AM MDT","Vulture","Desert","Neither","1","0","7","Carrion","Heat (Allows survival in the Desert)","","","",""
"2021/09/24 12:22:21 AM MDT","Lion","Grassland","Antivenom only","10","0","10","Carrion","","","","",""
"2021/09/24 12:22:44 AM MDT","Barnicle","Ocean","Antivenom only","0","10","1","Algae","","","","",""
"2021/09/24 12:23:39 AM MDT","Coconut Crab","Human Garbage Dump","Neither","2","2","3","Coconuts","","","","",""
"2021/09/24 12:23:58 AM MDT","Viper","Grassland","Venom + Antivenom","3","0","4","","Heat (Allows survival in the Desert)","","","",""
"2021/09/24 12:24:20 AM MDT","Polar Bear","Tundra","Neither","10","2","3","Carrion","Cold (Allows survival in the Tundra)","","","",""
"2021/09/24 12:24:55 AM MDT","Baleen Whale","Ocean","Neither","0","6","2","Algae","","","","",""
"2021/09/24 12:25:10 AM MDT","Sardine","Ocean","Neither","3","0","3","","","","","",""
"2021/09/24 12:25:33 AM MDT","Turtle","Ocean","Neither","3","10","3","Ditritus","","","","",""
"2021/09/24 12:26:06 AM MDT","Housecat","Grassland","Neither","1","0","2","","","","","",""
"2021/09/24 12:26:24 AM MDT","Lizard","Desert","Neither","2","0","2","","Heat (Allows survival in the Desert)","","","",""
"2021/09/24 12:26:50 AM MDT","Monkey","Rainforest","Neither","2","0","2","Carrion;Leaves;Grass;Seeds;Ditritus;Coconuts","","","","",""
"2021/09/24 12:39:05 AM MDT","Tuna","Ocean","Neither","8","0","7","","","","","",""
"2021/09/24 12:39:19 AM MDT","Sea Snake","Ocean","Venom + Antivenom","0","0","8","","","","","",""
"2021/09/24 12:39:54 AM MDT","Penguin","Tundra","Neither","3","0","4","","Cold (Allows survival in the Tundra)","","","",""
"2021/09/24 12:40:29 AM MDT","Sarlaac","Desert","Venom + Antivenom","4","5","3","Ditritus","Heat (Allows survival in the Desert)","","","",""
"2021/09/24 12:41:04 AM MDT","Elephant","Rainforest","Neither","3","6","3","Leaves;Grass","","","","",""
"2021/09/24 12:41:20 AM MDT","Mongoose","Grassland","Antivenom only","3","3","6","","","","","",""
"2021/09/24 12:41:40 AM MDT","Bat","Temperate Forest","Neither","3","0","8","","","","","",""
"2021/09/24 12:41:56 AM MDT","Komoto Dragon","Desert","Venom + Antivenom","3","1","4","","","","","",""
"2021/09/24 12:42:20 AM MDT","Camel","Desert","Neither","0","3","7","Leaves;Grass;Seeds","Heat (Allows survival in the Desert)","","","",""
"2021/09/24 12:46:20 AM MDT","Squid","Benthic","Venom + Antivenom","5","0","2","Ditritus","","","","",""
"2021/09/24 12:47:17 AM MDT","Hagfish","Benthic","Neither","0","0","0","Carrion;Ditritus","","","","",""
"2021/09/24 12:48:44 AM MDT","Falcon","Grassland","Neither","4","0","10","","","","","",""
"2021/09/24 12:49:12 AM MDT","Desert Eagle","Desert","Neither","5","0","10","Carrion","Heat (Allows survival in the Desert)","","","",""
"2021/09/24 12:49:34 AM MDT","Owl","Grassland","Antivenom only","3","0","5","","","","","",""
"2021/09/24 12:49:51 AM MDT","Snowy Owl","Tundra","Antivenom only","3","0","10","","Cold (Allows survival in the Tundra)","","","",""
"2021/09/24 12:50:18 AM MDT","Snail","Human Garbage Dump","Neither","0","4","1","Carrion;Seeds;Ditritus;Algae;Lichen","","","","",""
"2021/09/24 12:53:18 AM MDT","Tyrannosaurus","Temperate Forest","Neither","10","0","7","Carrion","","","","",""
"2021/09/24 12:53:39 AM MDT","Velociraptor","Rainforest","Neither","6","0","10","","","","","",""
"2021/09/24 12:54:03 AM MDT","Tortoise","Desert","Antivenom only","0","10","1","Leaves;Grass;Seeds","Heat (Allows survival in the Desert)","","","",""
"2021/09/24 12:58:50 AM MDT","Oyster","Ocean","Antivenom only","0","5","1","Algae","","","","",""
"2021/09/24 12:59:14 AM MDT","Aphid","Temperate Forest","Neither","0","0","1","Leaves","","","","",""
"2021/09/24 12:59:39 AM MDT","Ice Worm","Tundra","Neither","0","0","0","Algae","Cold (Allows survival in the Tundra)","","","",""
"2021/09/24 12:59:56 AM MDT","Worm","Rainforest","Neither","0","0","1","Ditritus","","","","",""
"2021/09/24 1:03:47 AM MDT","Cheetah","Grassland","Neither","8","0","10","","","","","",""
"2021/09/24 1:04:00 AM MDT","Bobcat","Grassland","Neither","5","0","5","","","","","",""
"2021/09/24 1:04:15 AM MDT","Sheep","Grassland","Neither","2","0","3","Grass","","","","",""
"2021/09/24 1:04:43 AM MDT","Minnow","Ocean","Neither","1","0","2","","","","","",""
"2021/09/24 1:05:10 AM MDT","Beaver","Temperate Forest","Neither","1","0","4","Coconuts","","","","",""
"2021/09/24 1:05:30 AM MDT","Antelope","Grassland","Neither","0","0","10","Grass","","","","",""